924;9067;"Futurama.Bender's.Game.mkv"
927;9067;"Futurama.Benders.Big.Score.mkv"
930;9067;"Futurama.Into.the.Wild.Green.Yonder.mkv"
806;9067;"Futurama.S01E01.mkv"
808;9067;"Futurama.S01E02.mkv"
809;9067;"Futurama.S01E03.mkv"
811;9067;"Futurama.S01E04.mkv"
813;9067;"Futurama.S01E05.mkv"
814;9067;"Futurama.S01E06.mkv"
816;9067;"Futurama.S01E07.mkv"
818;9067;"Futurama.S01E08.mkv"
820;9067;"Futurama.S01E09.mkv"
821;9067;"Futurama.S01E10.mkv"
823;9067;"Futurama.S01E11.mkv"
825;9067;"Futurama.S01E12.mkv"
826;9067;"Futurama.S01E13.mkv"
828;9067;"Futurama.S02E01.mkv"
830;9067;"Futurama.S02E02.mkv"
831;9067;"Futurama.S02E03.mkv"
833;9067;"Futurama.S02E04.mkv"
835;9067;"Futurama.S02E05.mkv"
836;9067;"Futurama.S02E06.mkv"
838;9067;"Futurama.S02E07.mkv"
839;9067;"Futurama.S02E08.mkv"
841;9067;"Futurama.S02E09.mkv"
842;9067;"Futurama.S02E10.mkv"
844;9067;"Futurama.S02E11.mkv"
846;9067;"Futurama.S02E12.mkv"
847;9067;"Futurama.S02E13.mkv"
849;9067;"Futurama.S02E14.mkv"
850;9067;"Futurama.S02E15.mkv"
852;9067;"Futurama.S02E16.mkv"
854;9067;"Futurama.S02E17.mkv"
856;9067;"Futurama.S02E18.mkv"
857;9067;"Futurama.S02E19.mkv"
859;9067;"Futurama.S03E01.mkv"
860;9067;"Futurama.S03E02.mkv"
862;9067;"Futurama.S03E03.mkv"
863;9067;"Futurama.S03E04.mkv"
865;9067;"Futurama.S03E05.mkv"
867;9067;"Futurama.S03E06.mkv"
868;9067;"Futurama.S03E07.mkv"
870;9067;"Futurama.S03E08.mkv"
872;9067;"Futurama.S03E09.mkv"
873;9067;"Futurama.S03E10.mkv"
875;9067;"Futurama.S03E11.mkv"
877;9067;"Futurama.S03E12.mkv"
878;9067;"Futurama.S03E13.mkv"
880;9067;"Futurama.S03E14.mkv"
881;9067;"Futurama.S03E15.mkv"
883;9067;"Futurama.S03E16.mkv"
884;9067;"Futurama.S03E17.mkv"
886;9067;"Futurama.S03E18.mkv"
887;9067;"Futurama.S03E19.mkv"
888;9067;"Futurama.S03E20.mkv"
890;9067;"Futurama.S03E21.mkv"
891;9067;"Futurama.S03E22.mkv"
893;9067;"Futurama.S04E01.mkv"
894;9067;"Futurama.S04E02.mkv"
896;9067;"Futurama.S04E03.mkv"
898;9067;"Futurama.S04E04.mkv"
899;9067;"Futurama.S04E05.mkv"
901;9067;"Futurama.S04E06.mkv"
902;9067;"Futurama.S04E07.mkv"
904;9067;"Futurama.S04E08.mkv"
906;9067;"Futurama.S04E09.mkv"
907;9067;"Futurama.S04E10.mkv"
909;9067;"Futurama.S04E11.mkv"
911;9067;"Futurama.S04E12.mkv"
912;9067;"Futurama.S04E13.mkv"
914;9067;"Futurama.S04E14.mkv"
915;9067;"Futurama.S04E15.mkv"
917;9067;"Futurama.S04E16.mkv"
919;9067;"Futurama.S04E17.mkv"
920;9067;"Futurama.S04E18.mkv"
933;9067;"Futurama.S06E01.avi"
934;9067;"Futurama.S06E02.avi"
936;9067;"Futurama.S06E03.avi"
937;9067;"Futurama.S06E04.avi"
938;9067;"Futurama.S06E05.avi"
940;9067;"Futurama.S06E06.avi"
941;9067;"Futurama.S06E07.avi"
942;9067;"Futurama.S06E08.avi"
944;9067;"Futurama.S06E09.avi"
945;9067;"Futurama.S06E10.avi"
947;9067;"Futurama.S06E11.avi"
948;9067;"Futurama.S06E12.avi"
949;9067;"Futurama.S06E13.avi"
950;9067;"Futurama.S06E14.avi"
951;9067;"Futurama.S06E15.avi"
953;9067;"Futurama.S06E16.avi"
954;9067;"Futurama.S06E17.avi"
955;9067;"Futurama.S06E18.avi"
956;9067;"Futurama.S06E19.avi"
958;9067;"Futurama.S06E20.avi"
959;9067;"Futurama.S06E21.avi"
960;9067;"Futurama.S06E22.avi"
961;9067;"Futurama.S06E23.avi"
962;9067;"Futurama.S06E24.avi"
964;9067;"Futurama.S06E25.avi"
